{
  "git_enriched": {
    "mappings": {
      "items": {
        "dynamic_templates": [{
          "notanalyzed": {
            "match": "*",
            "match_mapping_type": "string",
            "mapping": {
              "index": "not_analyzed",
              "type": "string"
            }
          }
        }],
        "properties": {
          "project": {
            "type": "keyword"
          },
          "Committer": {
            "type": "keyword"
          },
          "committer_name": {
            "type": "keyword"
          },
          "ocean-unique-id": {
            "type": "keyword"
          },
          "metadata__updated_on": {
            "type": "date"
          },
          "hash_short": {
            "type": "keyword"
          },
          "author_domain": {
            "type": "keyword"
          },
          "lines_changed": {
            "type": "long"
          },
          "author_org_name": {
            "type": "keyword"
          },
          "origin": {
            "type": "keyword"
          },
          "title": {
            "type": "keyword"
          },
          "_source": {
            "type": "_source"
          },
          "author_date": {
            "type": "date"
          },
          "utc_author": {
            "type": "date"
          },
          "files": {
            "type": "long"
          },
          "author_uuid": {
            "type": "keyword"
          },
          "is_git_commit": {
            "type": "long"
          },
          "metadata__timestamp": {
            "type": "date"
          },
          "message": {
            "type": "keyword"
          },
          "lines_added": {
            "type": "long"
          },
          "lines_removed": {
            "type": "long"
          },
          "author_bot": {
            "type": "boolean"
          },
          "grimoire_creation_date": {
            "type": "date"
          },
          "github_repo": {
            "type": "keyword"
          },
          "repo_name": {
            "type": "keyword"
          },
          "hash": {
            "type": "keyword"
          },
          "Author": {
            "type": "keyword"
          },
          "_score": {
            "type": "long"
          },
          "_id": {
            "type": "keyword"
          },
          "author_max_date": {
            "type": "date"
          },
          "message_analyzed": {
            "type": "text",
            "fielddata": true
          },
          "_index": {
            "type": "keyword"
          },
          "utc_commit": {
            "type": "date"
          },
          "commit_date": {
            "type": "date"
          },
          "url_id": {
            "type": "keyword"
          },
          "_type": {
            "type": "keyword"
          },
          "committer_domain": {
            "type": "keyword"
          },
          "tz": {
            "type": "long"
          },
          "author_name": {
            "type": "keyword"
          },
          "author_min_date": {
            "type": "date"
          },
          "channel_purpose": {
            "properties": {
              "value": {
                "type": "keyword"
              },
              "creator": {
                "type": "keyword"
              },
              "last_set": {
                "type": "long"
              }
            }
          }
        }
      }
    }
  },
"git_enriched-2": {
    "mappings": {
      "items": {
        "dynamic_templates": [{
          "notanalyzed": {
            "match": "*",
            "match_mapping_type": "string",
            "mapping": {
              "index": "not_analyzed",
              "type": "string"
            }
          }
        }],
        "properties": {
          "message": {
            "type": "text"
          }
        }
      }
    }
  }
}